…
Here we examine the number of countries in each continent that have a life expectancy over 50, and how this changes over time.

## Task 3

Here I compare how mean life expectancy for each continent is changing over time. I chose to use the average life expectancy to avoid having the plots become too cluttered. As well, I chose to use scatterplots, as I am plotting 2 quantitative variables.

```r
df <- gapminder %>%
  group_by(year,continent) %>%
  summarize(meanlifeExp = mean(lifeExp)) # group by continent and year, and compute mean life expectnacy for each grouping
df # print table
```

```
## # A tibble: 60 x 3
## # Groups:   year [?]
##     year continent meanlifeExp
##    <int> <fct>           <dbl>
##  1  1952 Africa           39.1
##  2  1952 Americas         53.3
##  3  1952 Asia             46.3
##  4  1952 Europe           64.4
##  5  1952 Oceania          69.3
##  6  1957 Africa           41.3
##  7  1957 Americas         56.0
##  8  1957 Asia             49.3
##  9  1957 Europe           66.7
## 10  1957 Oceania          70.3
## # ... with 50 more rows
```
…
Overall, it seems like all continents have gradually increasing life expectancies. However, Africa seems to have reasonably leveled off in roughly the last 20 years.

## Task 4


```r
df <- gapminder %>%
  group_by(year,continent) %>%
  filter(lifeExp > 50)
df <- count(df) # stores number of countries with a life expectancy > 50 in a given continent, for each year, in a variable called n
df # prints table
```

```
## # A tibble: 60 x 3
## # Groups:   year, continent [60]
##     year continent     n
##    <int> <fct>     <int>
##  1  1952 Africa        2
##  2  1952 Americas     16
##  3  1952 Asia         11
##  4  1952 Europe       29
##  5  1952 Oceania       2
##  6  1957 Africa        3
##  7  1957 Americas     17
##  8  1957 Asia         15
##  9  1957 Europe       29
## 10  1957 Oceania       2
## # ... with 50 more rows
```
…
